[
  {
    "key":"MILK",
    "name":"Milk",
    "title":"Category 1",
    "image":"milk"
  },
  {
    "key":"Curd",
    "name":"Curd",
    "title":"Category 2",
    "image":"curd"
  },
  {
    "key":"Paneer",
    "name":"Paneer",
    "title":"Category 3",
    "image":"paneer"
  },
  {
    "key":"BUTTER",
    "name":"Butter",
    "title":"Category 4",
    "image":"butter"
  },
  {
    "key":"GHEE",
    "name":"Ghee",
    "title":"Category 5",
    "image":"ghee"
  },
  {
    "key":"CHEESE",
    "name":"Cheese",
    "title":"Category 6",
    "image":"cheese"
  },
  {
    "key":"BUTTERMILK",
    "name":"Buttermilk",
    "title":"Category 7",
    "image":"buttermilk"
  },
  {
    "key":"YOGHURT",
    "name":"Yoghurt",
    "title":"Category 8",
    "image":"yoghurt"
  },
  {
    "key":"EGGS",
    "name":"Eggs",
    "title":"Category 9",
    "image":"eggs"
  }
]
