{
  "project_info": {
    "project_number": "836983997658",
    "firebase_url": "https://gwala2.firebaseio.com",
    "project_id": "gwala2",
    "storage_bucket": "gwala2.appspot.com"
  },
  "client": [
    {
      "client_info": {
        "mobilesdk_app_id": "1:836983997658:android:8cb7e11925f4b5f2",
        "android_client_info": {
          "package_name": "com.gwala"
        }
      },
      "oauth_client": [
        {
          "client_id": "836983997658-mchf3ap1spqiev9ld77cp5gifrngmfc6.apps.googleusercontent.com",
          "client_type": 1,
          "android_info": {
            "package_name": "com.gwala",
            "certificate_hash": "095fe73ae5a0a6dc11d5311d55e79e624d62fa65"
          }
        },
        {
          "client_id": "836983997658-g5lpbmrafdutrt98a23ovg1sth605bf1.apps.googleusercontent.com",
          "client_type": 3
        }
      ],
      "api_key": [
        {
          "current_key": "AIzaSyBGfql7iOnN2c5XvYiUepNEPPOCUta7l_4"
        }
      ],
      "services": {
        "appinvite_service": {
          "other_platform_oauth_client": [
            {
              "client_id": "836983997658-g5lpbmrafdutrt98a23ovg1sth605bf1.apps.googleusercontent.com",
              "client_type": 3
            }
          ]
        }
      }
    }
  ],
  "configuration_version": "1"
}